X: 1
T: Down by the Sally Gardens
M: 4/4
L: 1/4
K: Gmaj
Q: 1/4=120
|: GA B2 | AG A2 | Bde2 | -eg/e/d2 | gde2 | dBA2 | -AGG2 | -G3z :|
| d2g2 | f2e2 | -e f/g/f2 | e2d2| Bde2 | dBde | gag2 | -g3z |
|GA B2 | AG A2 | Bde2 | -eg/e/d2 | gde2 | dBA2 | -AGG2 | -G3z |
